robotweath.com blogs & {targets} pipeline
…
File sizes

#> # A tibble: 48 × 3
#>    path                                                         size modify_date
#>    <fs::path>                                            <fs::bytes> <date>     
#>  1 data/perpetuals.rda                                         6.88M 2024-02-28 
#>  2 R/scripts/turnover_costs.R                                  14.9K 2024-02-26 
#>  3 R/tar_plans/robotwealth.com/tar_06_feat_evol.R              9.54K 2024-02-26 
#>  4 R/tar_plans/plan__preamble.R                                8.97K 2024-02-23 
#>  5 R/scripts/expected_returns_models.R                         8.66K 2024-02-27 
#>  6 R/scripts/convex-optimisation-with-cvxr.R                   5.89K 2024-02-28 
#>  7 R/tar_plans/robotwealth.com/tar_05_tidymodels.R             4.08K 2024-02-26 
#>  8 default.nix                                                 3.64K 2024-02-28 
#>  9 R/tar_plans/robotwealth.com/tar_04_features_deciles.R       3.51K 2024-02-26 
#> 10 README.rmarkdown                                            3.36K 2024-02-28 
#> # ℹ 38 more rows
…
Print data

#> # A tibble: 187,251 × 11
#>    ticker  date         open   high    low  close dollar_volume num_trades
#>    <chr>   <date>      <dbl>  <dbl>  <dbl>  <dbl>         <dbl>      <dbl>
#>  1 BTCUSDT 2019-09-11 10172. 10293.  9884.  9992.     85955369.      10928
#>  2 BTCUSDT 2019-09-12  9992. 10365.  9934. 10327.    157223498.      19384
#>  3 BTCUSDT 2019-09-13 10327. 10450. 10239. 10297.    189055129.      25370
#>  4 BTCUSDT 2019-09-14 10295. 10396. 10154. 10358     206031349.      31494
#>  5 BTCUSDT 2019-09-15 10356. 10420. 10025. 10306.    211326874.      27512
#>  6 BTCUSDT 2019-09-16 10307. 10354. 10115  10120.    208211376.      29030
#>  7 BTCUSDT 2019-09-17 10117. 10329. 10081. 10201.    223930859.      31866
#>  8 BTCUSDT 2019-09-18 10201. 10271. 10098. 10173.    221746132.      30440
#>  9 BTCUSDT 2019-09-19 10173. 10212.  9530.  9880.    225183077.      36439
#> 10 BTCUSDT 2019-09-20  9882  10332.  9875. 10181.    261266607.      37161
#> # ℹ 187,241 more rows
#> # ℹ 3 more variables: taker_buy_volume <dbl>, taker_buy_quote_volumne <dbl>,
#> #   funding_rate <dbl>
…
